<?xml version="1.0" encoding="UTF-8" standalone="no"?>
<!-- Generator: Adobe Illustrator 16.0.0, SVG Export Plug-In . SVG Version: 6.00 Build 0)  -->

<svg
   xmlns:osb="http://www.openswatchbook.org/uri/2009/osb"
   xmlns:dc="http://purl.org/dc/elements/1.1/"
   xmlns:cc="http://creativecommons.org/ns#"
   xmlns:rdf="http://www.w3.org/1999/02/22-rdf-syntax-ns#"
   xmlns:svg="http://www.w3.org/2000/svg"
   xmlns="http://www.w3.org/2000/svg"
   xmlns:xlink="http://www.w3.org/1999/xlink"
   xmlns:sodipodi="http://sodipodi.sourceforge.net/DTD/sodipodi-0.dtd"
   xmlns:inkscape="http://www.inkscape.org/namespaces/inkscape"
   version="1.1"
   id="Capa_1"
   x="0px"
   y="0px"
   width="512px"
   height="512px"
   viewBox="0 0 98.861 98.861"
   style="enable-background:new 0 0 98.861 98.861;"
   xml:space="preserve"
   inkscape:version="0.91 r13725"
   sodipodi:docname="logo.svg"><metadata
     id="metadata51"><rdf:RDF><cc:Work
         rdf:about=""><dc:format>image/svg+xml</dc:format><dc:type
           rdf:resource="http://purl.org/dc/dcmitype/StillImage" /></cc:Work></rdf:RDF></metadata><defs
     id="defs49"><linearGradient
       inkscape:collect="always"
       id="linearGradient5806"><stop
         style="stop-color:#006df0;stop-opacity:1;"
         offset="0"
         id="stop5808" /><stop
         style="stop-color:#006df0;stop-opacity:0;"
         offset="1"
         id="stop5810" /></linearGradient><linearGradient
       id="linearGradient4312"
       osb:paint="solid"><stop
         style="stop-color:#006df0;stop-opacity:1;"
         offset="0"
         id="stop4314" /></linearGradient><linearGradient
       id="linearGradient4306"
       osb:paint="solid"><stop
         style="stop-color:#006df0;stop-opacity:1;"
         offset="0"
         id="stop4308" /></linearGradient><linearGradient
       id="linearGradient4300"
       osb:paint="solid"><stop
         style="stop-color:#006df0;stop-opacity:1;"
         offset="0"
         id="stop4302" /></linearGradient><linearGradient
       id="linearGradient4294"
       osb:paint="solid"><stop
         style="stop-color:#006df0;stop-opacity:1;"
         offset="0"
         id="stop4296" /></linearGradient><linearGradient
       id="linearGradient4288"
       osb:paint="solid"><stop
         style="stop-color:#006df0;stop-opacity:1;"
         offset="0"
         id="stop4290" /></linearGradient><linearGradient
       id="linearGradient4282"
       osb:paint="solid"><stop
         style="stop-color:#006df0;stop-opacity:1;"
         offset="0"
         id="stop4284" /></linearGradient><linearGradient
       id="linearGradient4276"
       osb:paint="solid"><stop
         style="stop-color:#006df0;stop-opacity:1;"
         offset="0"
         id="stop4278" /></linearGradient><linearGradient
       id="linearGradient4270"
       osb:paint="solid"><stop
         style="stop-color:#006df0;stop-opacity:1;"
         offset="0"
         id="stop4272" /></linearGradient><linearGradient
       id="linearGradient4264"
       osb:paint="solid"><stop
         style="stop-color:#006df0;stop-opacity:1;"
         offset="0"
         id="stop4266" /></linearGradient><linearGradient
       id="linearGradient4258"
       osb:paint="solid"><stop
         style="stop-color:#006df0;stop-opacity:1;"
         offset="0"
         id="stop4260" /></linearGradient><linearGradient
       id="linearGradient4252"
       osb:paint="solid"><stop
         style="stop-color:#006df0;stop-opacity:1;"
         offset="0"
         id="stop4254" /></linearGradient><linearGradient
       id="linearGradient4246"
       osb:paint="solid"><stop
         style="stop-color:#006df0;stop-opacity:1;"
         offset="0"
         id="stop4248" /></linearGradient><linearGradient
       id="linearGradient4240"
       osb:paint="solid"><stop
         style="stop-color:#006df0;stop-opacity:1;"
         offset="0"
         id="stop4242" /></linearGradient><linearGradient
       id="linearGradient4234"
       osb:paint="solid"><stop
         style="stop-color:#006df0;stop-opacity:1;"
         offset="0"
         id="stop4236" /></linearGradient><linearGradient
       id="linearGradient4228"
       osb:paint="solid"><stop
         style="stop-color:#006df0;stop-opacity:1;"
         offset="0"
         id="stop4230" /></linearGradient><linearGradient
       id="linearGradient4222"
       osb:paint="solid"><stop
         style="stop-color:#006df0;stop-opacity:1;"
         offset="0"
         id="stop4224" /></linearGradient><linearGradient
       id="linearGradient4216"
       osb:paint="solid"><stop
         style="stop-color:#006df0;stop-opacity:1;"
         offset="0"
         id="stop4218" /></linearGradient><linearGradient
       id="linearGradient4210"
       osb:paint="solid"><stop
         style="stop-color:#006df0;stop-opacity:1;"
         offset="0"
         id="stop4212" /></linearGradient><linearGradient
       id="linearGradient4204"
       osb:paint="solid"><stop
         style="stop-color:#006df0;stop-opacity:1;"
         offset="0"
         id="stop4206" /></linearGradient><linearGradient
       id="linearGradient4198"
       osb:paint="solid"><stop
         style="stop-color:#006df0;stop-opacity:1;"
         offset="0"
         id="stop4200" /></linearGradient><linearGradient
       id="linearGradient4192"
       osb:paint="solid"><stop
         style="stop-color:#006df0;stop-opacity:1;"
         offset="0"
         id="stop4194" /></linearGradient><linearGradient
       id="linearGradient4186"
       osb:paint="solid"><stop
         style="stop-color:#006df0;stop-opacity:1;"
         offset="0"
         id="stop4188" /></linearGradient><linearGradient
       id="linearGradient4180"
       osb:paint="solid"><stop
         style="stop-color:#006df0;stop-opacity:1;"
         offset="0"
         id="stop4182" /></linearGradient><linearGradient
       inkscape:collect="always"
       xlink:href="#linearGradient5806"
       id="linearGradient5812"
       x1="-103.82064"
       y1="7.763905"
       x2="-6.76964"
       y2="7.763905"
       gradientUnits="userSpaceOnUse" /><linearGradient
       inkscape:collect="always"
       xlink:href="#linearGradient5806"
       id="linearGradient5814" /><linearGradient
       inkscape:collect="always"
       xlink:href="#linearGradient5806"
       id="linearGradient5816" /><linearGradient
       inkscape:collect="always"
       xlink:href="#linearGradient5806"
       id="linearGradient5818" /><linearGradient
       inkscape:collect="always"
       xlink:href="#linearGradient5806"
       id="linearGradient5820" /><linearGradient
       inkscape:collect="always"
       xlink:href="#linearGradient5806"
       id="linearGradient5822" /><linearGradient
       inkscape:collect="always"
       xlink:href="#linearGradient5806"
       id="linearGradient5824" /><linearGradient
       inkscape:collect="always"
       xlink:href="#linearGradient5806"
       id="linearGradient5826" /><linearGradient
       inkscape:collect="always"
       xlink:href="#linearGradient5806"
       id="linearGradient5828" /><linearGradient
       inkscape:collect="always"
       xlink:href="#linearGradient5806"
       id="linearGradient5830" /><linearGradient
       inkscape:collect="always"
       xlink:href="#linearGradient5806"
       id="linearGradient5832" /><linearGradient
       inkscape:collect="always"
       xlink:href="#linearGradient5806"
       id="linearGradient5834" /><linearGradient
       inkscape:collect="always"
       xlink:href="#linearGradient5806"
       id="linearGradient5836" /><linearGradient
       inkscape:collect="always"
       xlink:href="#linearGradient5806"
       id="linearGradient5838" /><linearGradient
       inkscape:collect="always"
       xlink:href="#linearGradient5806"
       id="linearGradient5840" /><linearGradient
       inkscape:collect="always"
       xlink:href="#linearGradient5806"
       id="linearGradient5842" /><linearGradient
       inkscape:collect="always"
       xlink:href="#linearGradient5806"
       id="linearGradient5844" /><linearGradient
       inkscape:collect="always"
       xlink:href="#linearGradient5806"
       id="linearGradient5846" /><linearGradient
       inkscape:collect="always"
       xlink:href="#linearGradient5806"
       id="linearGradient5848" /><linearGradient
       inkscape:collect="always"
       xlink:href="#linearGradient5806"
       id="linearGradient5850" /><linearGradient
       inkscape:collect="always"
       xlink:href="#linearGradient5806"
       id="linearGradient5852" /><linearGradient
       inkscape:collect="always"
       xlink:href="#linearGradient5806"
       id="linearGradient5854" /><linearGradient
       inkscape:collect="always"
       xlink:href="#linearGradient5806"
       id="linearGradient5856" /><linearGradient
       inkscape:collect="always"
       xlink:href="#linearGradient5806"
       id="linearGradient4248"
       gradientUnits="userSpaceOnUse"
       x1="-103.82064"
       y1="7.763905"
       x2="-6.76964"
       y2="7.763905" /><linearGradient
       inkscape:collect="always"
       xlink:href="#linearGradient5806"
       id="linearGradient4250"
       gradientUnits="userSpaceOnUse"
       x1="-103.82064"
       y1="7.763905"
       x2="-6.76964"
       y2="7.763905" /><linearGradient
       inkscape:collect="always"
       xlink:href="#linearGradient5806"
       id="linearGradient4253"
       gradientUnits="userSpaceOnUse"
       x1="-103.82064"
       y1="7.763905"
       x2="-6.76964"
       y2="7.763905" /><linearGradient
       inkscape:collect="always"
       xlink:href="#linearGradient5806"
       id="linearGradient4255"
       gradientUnits="userSpaceOnUse"
       x1="-103.82064"
       y1="7.763905"
       x2="-6.76964"
       y2="7.763905" /><linearGradient
       inkscape:collect="always"
       xlink:href="#linearGradient5806"
       id="linearGradient4257"
       gradientUnits="userSpaceOnUse"
       x1="-103.82064"
       y1="7.763905"
       x2="-6.76964"
       y2="7.763905" /></defs><sodipodi:namedview
     pagecolor="#ffffff"
     bordercolor="#666666"
     borderopacity="1"
     objecttolerance="10"
     gridtolerance="10"
     guidetolerance="10"
     inkscape:pageopacity="0"
     inkscape:pageshadow="2"
     inkscape:window-width="1366"
     inkscape:window-height="705"
     id="namedview47"
     showgrid="false"
     inkscape:snap-bbox="false"
     inkscape:snap-text-baseline="false"
     inkscape:zoom="0.32113891"
     inkscape:cx="-218.46034"
     inkscape:cy="248.8278"
     inkscape:window-x="-8"
     inkscape:window-y="-8"
     inkscape:window-maximized="1"
     inkscape:current-layer="Capa_1" /><g
     id="g3"
     style="stroke:url(#linearGradient5812);stroke-opacity:1"
     transform="translate(104.6192,31.866766)"
     inkscape:export-xdpi="90"
     inkscape:export-ydpi="90"><g
       id="g5"
       style="stroke:url(#linearGradient4257);stroke-opacity:1"
       transform="translate(-104.72564,-31.836595)"><path
         d="m 73.847,30.236 -48.831,0 c -1.562,0 -2.836,1.263 -2.836,2.828 l 0,9.628 c 0,1.565 1.274,2.828 2.836,2.828 l 48.831,0 c 1.559,0 2.832,-1.263 2.832,-2.828 l 0,-9.628 c 0,-1.565 -1.275,-2.828 -2.832,-2.828 z m -46.56,6.706 c -0.965,0 -1.747,-0.78 -1.747,-1.746 0,-0.963 0.782,-1.745 1.747,-1.745 0.967,0 1.746,0.782 1.746,1.745 0,0.967 -0.779,1.746 -1.746,1.746 z m 41.944,5.034 -12.336,0 0,-4.097 12.337,0 0,4.097 z"
         id="path7"
         style="fill:#006df0;stroke:url(#linearGradient4248);stroke-opacity:1"
         inkscape:connector-curvature="0" /><path
         d="m 73.847,47.075 -48.831,0 c -1.562,0 -2.836,1.265 -2.836,2.83 l 0,9.627 c 0,1.563 1.274,2.829 2.836,2.829 l 48.831,0 c 1.559,0 2.832,-1.266 2.832,-2.829 l 0,-9.627 c 0,-1.565 -1.275,-2.83 -2.832,-2.83 z m -46.56,6.708 c -0.965,0 -1.747,-0.777 -1.747,-1.746 0,-0.962 0.782,-1.748 1.747,-1.748 0.967,0 1.746,0.785 1.746,1.748 0,0.968 -0.779,1.746 -1.746,1.746 z m 41.944,5.033 -12.336,0 0,-4.098 12.337,0 0,4.098 z"
         id="path9"
         style="fill:#006df0;stroke:url(#linearGradient4250);stroke-opacity:1"
         inkscape:connector-curvature="0" /><path
         d="m 73.847,63.915 -48.831,0 c -1.562,0 -2.836,1.265 -2.836,2.829 l 0,9.627 c 0,1.564 1.274,2.83 2.836,2.83 l 48.831,0 c 1.559,0 2.832,-1.266 2.832,-2.83 l 0,-9.627 c 0,-1.564 -1.275,-2.829 -2.832,-2.829 z m -46.56,6.706 c -0.965,0 -1.747,-0.775 -1.747,-1.746 0,-0.964 0.782,-1.744 1.747,-1.744 0.967,0 1.746,0.779 1.746,1.744 0,0.971 -0.779,1.746 -1.746,1.746 z m 41.944,5.033 -12.336,0 0,-4.098 12.337,0 0,4.098 z"
         id="path11"
         style="fill:#006df0;stroke:url(#linearGradient4253);stroke-opacity:1"
         inkscape:connector-curvature="0" /><path
         d="M 78.253,14.706 C 77.554,14.647 76.912,14.29 76.496,13.727 72.581,8.44 66.304,5.179 59.624,5.179 59.206,5.179 58.787,5.192 58.368,5.217 57.788,5.252 57.218,5.079 56.755,4.729 52.688,1.662 47.76,0 42.602,0 33.36,0 25.157,5.354 21.323,13.461 20.971,14.204 20.269,14.72 19.455,14.834 9.269,16.267 1.405,25.039 1.405,35.613 c 0,10.081 7.147,18.519 16.641,20.526 l 0,-6.234 c 0,-0.777 0.144,-1.518 0.383,-2.215 -5.077,-1.669 -8.757,-6.448 -8.757,-12.076 0,-7.011 5.704,-12.715 12.716,-12.715 0.354,0 0.702,0.028 1.049,0.056 2.021,0.157 3.849,-1.154 4.342,-3.114 1.709,-6.814 7.806,-11.573 14.822,-11.573 4.01,0 7.805,1.548 10.685,4.36 0.984,0.96 2.383,1.369 3.729,1.088 0.859,-0.179 1.736,-0.27 2.609,-0.27 4.909,0 9.293,2.76 11.44,7.202 0.755,1.562 2.405,2.492 4.132,2.314 0.43,-0.043 0.859,-0.064 1.275,-0.064 7.012,0 12.717,5.704 12.717,12.715 0,5.629 -3.682,10.407 -8.758,12.076 0.238,0.698 0.382,1.438 0.382,2.215 l 0,6.233 C 90.305,54.131 97.456,45.694 97.456,35.612 97.455,24.643 88.991,15.612 78.253,14.706 Z"
         id="path15"
         style="fill:#006df0;stroke:url(#linearGradient4255);stroke-opacity:1"
         inkscape:connector-curvature="0" /></g></g><g
     id="g17"
     style="stroke:url(#linearGradient5814)" /><g
     id="g19"
     style="stroke:url(#linearGradient5816)" /><g
     id="g21"
     style="stroke:url(#linearGradient5818)" /><g
     id="g23"
     style="stroke:url(#linearGradient5820)" /><g
     id="g25"
     style="stroke:url(#linearGradient5822)" /><g
     id="g27"
     style="stroke:url(#linearGradient5824)" /><g
     id="g29"
     style="stroke:url(#linearGradient5826)" /><g
     id="g31"
     style="stroke:url(#linearGradient5828)" /><g
     id="g33"
     style="stroke:url(#linearGradient5830)" /><g
     id="g35"
     style="stroke:url(#linearGradient5832)" /><g
     id="g37"
     style="stroke:url(#linearGradient5834)" /><g
     id="g39"
     style="stroke:url(#linearGradient5836)" /><g
     id="g41"
     style="stroke:url(#linearGradient5838)" /><g
     id="g43"
     style="stroke:url(#linearGradient5840)" /><g
     id="g45"
     style="stroke:url(#linearGradient5842)" /><flowRoot
     xml:space="preserve"
     id="flowRoot3403"
     style="fill:black;stroke:url(#linearGradient5844);stroke-opacity:1;stroke-width:1px;stroke-linejoin:miter;stroke-linecap:butt;fill-opacity:1;font-family:sans-serif;font-style:normal;font-weight:normal;font-size:40px;line-height:125%;letter-spacing:0px;word-spacing:0px"><flowRegion
       id="flowRegion3405"
       style="stroke:url(#linearGradient5844)"><rect
         id="rect3407"
         width="505.49152"
         height="101.9661"
         x="6.5084743"
         y="414.37289"
         style="stroke:url(#linearGradient5844)" /></flowRegion><flowPara
       id="flowPara3409"
       style="stroke:url(#linearGradient5844)" /></flowRoot><flowRoot
     xml:space="preserve"
     id="flowRoot3411"
     style="font-style:normal;font-weight:normal;font-size:40px;line-height:125%;font-family:sans-serif;letter-spacing:0px;word-spacing:0px;fill:#000000;fill-opacity:1;stroke:url(#linearGradient5846);stroke-width:1px;stroke-linecap:butt;stroke-linejoin:miter;stroke-opacity:1"
     transform="matrix(0.44450907,0,0,0.4363523,192.52674,-90.27691)"><flowRegion
       id="flowRegion3413"
       style="stroke:url(#linearGradient5846)"><rect
         id="rect3415"
         width="206.01558"
         height="75.970078"
         x="-768"
         y="360.13559"
         style="stroke:url(#linearGradient5846)" /></flowRegion><flowPara
       id="flowPara3417"
       style="font-style:normal;font-variant:normal;font-weight:300;font-stretch:normal;font-family:'Perpetua Titling MT';-inkscape-font-specification:'Perpetua Titling MT Light';stroke:url(#linearGradient5846)" /></flowRoot><flowRoot
     xml:space="preserve"
     id="flowRoot3419"
     style="fill:black;stroke:url(#linearGradient5848);stroke-opacity:1;stroke-width:1px;stroke-linejoin:miter;stroke-linecap:butt;fill-opacity:1;font-family:sans-serif;font-style:normal;font-weight:normal;font-size:40px;line-height:125%;letter-spacing:0px;word-spacing:0px"><flowRegion
       id="flowRegion3421"
       style="stroke:url(#linearGradient5848)"><rect
         id="rect3423"
         width="71.593224"
         height="49.898304"
         x="-843.93219"
         y="405.69492"
         style="stroke:url(#linearGradient5848)" /></flowRegion><flowPara
       id="flowPara3425"
       style="stroke:url(#linearGradient5848)" /></flowRoot><flowRoot
     xml:space="preserve"
     id="flowRoot3439"
     style="fill:black;stroke:url(#linearGradient5850);stroke-opacity:1;stroke-width:1px;stroke-linejoin:miter;stroke-linecap:butt;fill-opacity:1;font-family:Rockwell;font-style:normal;font-weight:normal;font-size:40px;line-height:125%;letter-spacing:0px;word-spacing:0px;-inkscape-font-specification:Rockwell;font-stretch:normal;font-variant:normal"><flowRegion
       id="flowRegion3441"
       style="stroke:url(#linearGradient5850)"><rect
         id="rect3443"
         width="279.86441"
         height="67.254234"
         x="-982.77966"
         y="58.576271"
         style="-inkscape-font-specification:Rockwell;font-family:Rockwell;font-weight:normal;font-style:normal;font-stretch:normal;font-variant:normal;stroke:url(#linearGradient5850)" /></flowRegion><flowPara
       id="flowPara3445"
       style="stroke:url(#linearGradient5850)" /></flowRoot><text
     xml:space="preserve"
     style="font-style:normal;font-variant:normal;font-weight:bold;font-stretch:normal;font-size:17.56110382px;line-height:125%;font-family:Rockwell;-inkscape-font-specification:'Rockwell, Bold';text-align:start;letter-spacing:0px;word-spacing:0px;writing-mode:lr-tb;text-anchor:start;fill:#006df0;fill-opacity:1;stroke:url(#linearGradient5852);stroke-width:1px;stroke-linecap:butt;stroke-linejoin:miter;stroke-opacity:1"
     x="7.0972815"
     y="97.71714"
     id="text3447"
     sodipodi:linespacing="125%"
     transform="scale(1.0382853,0.96312641)"><tspan
       sodipodi:role="line"
       id="tspan3449"
       x="7.0972815"
       y="97.71714"
       style="stroke:url(#linearGradient5852)" /></text>
<path
     style="stroke:url(#linearGradient5854);stroke-width:2.16949153;stroke-opacity:1"
     d=""
     id="path3453"
     inkscape:connector-curvature="0"
     transform="scale(0.1930879,0.1930879)" /><flowRoot
     xml:space="preserve"
     id="flowRoot4172"
     style="fill:black;stroke:url(#linearGradient5856);stroke-opacity:1;stroke-width:1px;stroke-linejoin:miter;stroke-linecap:butt;fill-opacity:1;font-family:sans-serif;font-style:normal;font-weight:normal;font-size:40px;line-height:125%;letter-spacing:0px;word-spacing:0px"><flowRegion
       id="flowRegion4174"
       style="stroke:url(#linearGradient5856)"><rect
         id="rect4176"
         width="551.05084"
         height="440.40677"
         x="17.355932"
         y="30.372881"
         style="stroke:url(#linearGradient5856)" /></flowRegion><flowPara
       id="flowPara4178"
       style="stroke:url(#linearGradient5856)" /></flowRoot></svg>